{
  "testId" : "1-mojrepozitorij.gspec",
  "name" : "mojRepozitorij.gspec",
  "report" : {
    "nodes" : [ {
      "name" : "Simple check",
      "status" : "info",
      "nodes" : [ {
        "name" : "check  mojRepozitorij.gspec --url http://localhost/mojRepozitorij.html --size 1024x768 --htmlreport spirala",
        "status" : "info",
        "nodes" : [ {
          "name" : "Check layout: mojRepozitorij.gspec included tags: ",
          "status" : "info",
          "time" : 1636903174476,
          "sections" : [ {
            "name" : "Inside section",
            "place" : {
              "filePath" : "mojRepozitorij.gspec",
              "lineNumber" : 11
            },
            "objects" : [ {
              "name" : "url",
              "specs" : [ {
                "status" : "info",
                "place" : {
                  "filePath" : "mojRepozitorij.gspec",
                  "lineNumber" : 13
                },
                "name" : "inside form",
                "meta" : [ ],
                "highlight" : [ "url", "form" ]
              } ]
            }, {
              "name" : "aGodina",
              "specs" : [ {
                "status" : "info",
                "place" : {
                  "filePath" : "mojRepozitorij.gspec",
                  "lineNumber" : 15
                },
                "name" : "inside form",
                "meta" : [ ],
                "highlight" : [ "aGodina", "form" ]
              } ]
            }, {
              "name" : "branch",
              "specs" : [ {
                "status" : "info",
                "place" : {
                  "filePath" : "mojRepozitorij.gspec",
                  "lineNumber" : 17
                },
                "name" : "inside form",
                "meta" : [ ],
                "highlight" : [ "branch", "form" ]
              } ]
            }, {
              "name" : "posalji",
              "specs" : [ {
                "status" : "info",
                "place" : {
                  "filePath" : "mojRepozitorij.gspec",
                  "lineNumber" : 19
                },
                "name" : "inside form",
                "meta" : [ ],
                "highlight" : [ "posalji", "form" ]
              } ]
            } ]
          }, {
            "name" : "Above section",
            "place" : {
              "filePath" : "mojRepozitorij.gspec",
              "lineNumber" : 21
            },
            "objects" : [ {
              "name" : "url",
              "specs" : [ {
                "status" : "info",
                "place" : {
                  "filePath" : "mojRepozitorij.gspec",
                  "lineNumber" : 23
                },
                "name" : "above aGodina",
                "meta" : [ {
                  "from" : {
                    "object" : "url",
                    "edge" : "bottom"
                  },
                  "to" : {
                    "object" : "aGodina",
                    "edge" : "top"
                  },
                  "expectedDistance" : ">= 0px",
                  "realDistance" : "0px"
                } ],
                "highlight" : [ "url", "aGodina" ]
              } ]
            }, {
              "name" : "branch",
              "specs" : [ {
                "status" : "info",
                "place" : {
                  "filePath" : "mojRepozitorij.gspec",
                  "lineNumber" : 25
                },
                "name" : "above posalji",
                "meta" : [ {
                  "from" : {
                    "object" : "branch",
                    "edge" : "bottom"
                  },
                  "to" : {
                    "object" : "posalji",
                    "edge" : "top"
                  },
                  "expectedDistance" : ">= 0px",
                  "realDistance" : "0px"
                } ],
                "highlight" : [ "branch", "posalji" ]
              } ]
            } ]
          }, {
            "name" : "Below section",
            "place" : {
              "filePath" : "mojRepozitorij.gspec",
              "lineNumber" : 27
            },
            "objects" : [ {
              "name" : "posalji",
              "specs" : [ {
                "status" : "info",
                "place" : {
                  "filePath" : "mojRepozitorij.gspec",
                  "lineNumber" : 29
                },
                "name" : "below branch",
                "meta" : [ {
                  "from" : {
                    "object" : "posalji",
                    "edge" : "top"
                  },
                  "to" : {
                    "object" : "branch",
                    "edge" : "bottom"
                  },
                  "expectedDistance" : ">= 0px",
                  "realDistance" : "0px"
                } ],
                "highlight" : [ "posalji", "branch" ]
              } ]
            }, {
              "name" : "branch",
              "specs" : [ {
                "status" : "info",
                "place" : {
                  "filePath" : "mojRepozitorij.gspec",
                  "lineNumber" : 31
                },
                "name" : "below aGodina",
                "meta" : [ {
                  "from" : {
                    "object" : "branch",
                    "edge" : "top"
                  },
                  "to" : {
                    "object" : "aGodina",
                    "edge" : "bottom"
                  },
                  "expectedDistance" : ">= 0px",
                  "realDistance" : "0px"
                } ],
                "highlight" : [ "branch", "aGodina" ]
              } ]
            }, {
              "name" : "aGodina",
              "specs" : [ {
                "status" : "info",
                "place" : {
                  "filePath" : "mojRepozitorij.gspec",
                  "lineNumber" : 33
                },
                "name" : "below url",
                "meta" : [ {
                  "from" : {
                    "object" : "aGodina",
                    "edge" : "top"
                  },
                  "to" : {
                    "object" : "url",
                    "edge" : "bottom"
                  },
                  "expectedDistance" : ">= 0px",
                  "realDistance" : "0px"
                } ],
                "highlight" : [ "aGodina", "url" ]
              } ]
            } ]
          }, {
            "name" : "Visible section",
            "place" : {
              "filePath" : "mojRepozitorij.gspec",
              "lineNumber" : 34
            },
            "objects" : [ {
              "name" : "form",
              "specs" : [ {
                "status" : "info",
                "place" : {
                  "filePath" : "mojRepozitorij.gspec",
                  "lineNumber" : 36
                },
                "name" : "visible",
                "highlight" : [ "form" ]
              } ]
            }, {
              "name" : "url",
              "specs" : [ {
                "status" : "info",
                "place" : {
                  "filePath" : "mojRepozitorij.gspec",
                  "lineNumber" : 38
                },
                "name" : "visible",
                "highlight" : [ "url" ]
              } ]
            }, {
              "name" : "aGodina",
              "specs" : [ {
                "status" : "info",
                "place" : {
                  "filePath" : "mojRepozitorij.gspec",
                  "lineNumber" : 40
                },
                "name" : "visible",
                "highlight" : [ "aGodina" ]
              } ]
            }, {
              "name" : "branch",
              "specs" : [ {
                "status" : "info",
                "place" : {
                  "filePath" : "mojRepozitorij.gspec",
                  "lineNumber" : 42
                },
                "name" : "visible",
                "highlight" : [ "branch" ]
              } ]
            }, {
              "name" : "posalji",
              "specs" : [ {
                "status" : "info",
                "place" : {
                  "filePath" : "mojRepozitorij.gspec",
                  "lineNumber" : 44
                },
                "name" : "visible",
                "highlight" : [ "posalji" ]
              } ]
            } ]
          } ],
          "objects" : {
            "form" : {
              "area" : [ 404, 270, 275, 88 ]
            },
            "posalji" : {
              "area" : [ 404, 336, 55, 22 ]
            },
            "branch" : {
              "area" : [ 531, 314, 149, 22 ]
            },
            "url" : {
              "area" : [ 531, 270, 149, 22 ]
            },
            "aGodina" : {
              "area" : [ 531, 292, 149, 22 ]
            }
          },
          "screenshot" : "layout-1-screenshot.png",
          "type" : "layout"
        } ],
        "time" : 1636903171194,
        "type" : "node"
      } ],
      "time" : 1636903160003,
      "type" : "node"
    } ]
  }
}