{
  "testId" : "1-testtablet.gspec",
  "name" : "testTablet.gspec",
  "report" : {
    "nodes" : [ {
      "name" : "Simple check",
      "status" : "info",
      "nodes" : [ {
        "name" : "check  testTablet.gspec --url http://localhost/z1.html --size 550x768 --htmlreport spirala",
        "status" : "info",
        "nodes" : [ {
          "name" : "Check layout: testTablet.gspec included tags: ",
          "status" : "info",
          "time" : 1636903471990,
          "sections" : [ {
            "name" : "Width section",
            "place" : {
              "filePath" : "testTablet.gspec",
              "lineNumber" : 9
            },
            "objects" : [ {
              "name" : "meni",
              "specs" : [ {
                "status" : "info",
                "place" : {
                  "filePath" : "testTablet.gspec",
                  "lineNumber" : 11
                },
                "name" : "width 98 to 100 % of body/width",
                "meta" : [ {
                  "from" : {
                    "object" : "meni",
                    "edge" : "left"
                  },
                  "to" : {
                    "object" : "meni",
                    "edge" : "right"
                  },
                  "expectedDistance" : "98 to 100% [506 to 517px]",
                  "realDistance" : "100% [517px]"
                } ],
                "highlight" : [ "meni" ]
              } ]
            }, {
              "name" : "studenti",
              "specs" : [ {
                "status" : "info",
                "place" : {
                  "filePath" : "testTablet.gspec",
                  "lineNumber" : 13
                },
                "name" : "width 98 to 100 % of body/width",
                "meta" : [ {
                  "from" : {
                    "object" : "studenti",
                    "edge" : "left"
                  },
                  "to" : {
                    "object" : "studenti",
                    "edge" : "right"
                  },
                  "expectedDistance" : "98 to 100% [506 to 517px]",
                  "realDistance" : "100% [517px]"
                } ],
                "highlight" : [ "studenti" ]
              } ]
            }, {
              "name" : "grupe",
              "specs" : [ {
                "status" : "info",
                "place" : {
                  "filePath" : "testTablet.gspec",
                  "lineNumber" : 15
                },
                "name" : "width 98 to 100 % of body/width",
                "meta" : [ {
                  "from" : {
                    "object" : "grupe",
                    "edge" : "left"
                  },
                  "to" : {
                    "object" : "grupe",
                    "edge" : "right"
                  },
                  "expectedDistance" : "98 to 100% [506 to 517px]",
                  "realDistance" : "100% [517px]"
                } ],
                "highlight" : [ "grupe" ]
              } ]
            } ]
          }, {
            "name" : "Inside section",
            "place" : {
              "filePath" : "testTablet.gspec",
              "lineNumber" : 19
            },
            "objects" : [ {
              "name" : "grupelnk",
              "specs" : [ {
                "status" : "info",
                "place" : {
                  "filePath" : "testTablet.gspec",
                  "lineNumber" : 21
                },
                "name" : "inside meni",
                "meta" : [ ],
                "highlight" : [ "grupelnk", "meni" ]
              } ]
            }, {
              "name" : "vjezbelnk",
              "specs" : [ {
                "status" : "info",
                "place" : {
                  "filePath" : "testTablet.gspec",
                  "lineNumber" : 23
                },
                "name" : "inside meni",
                "meta" : [ ],
                "highlight" : [ "vjezbelnk", "meni" ]
              } ]
            } ]
          }, {
            "name" : "Left of section",
            "place" : {
              "filePath" : "testTablet.gspec",
              "lineNumber" : 25
            },
            "objects" : [ {
              "name" : "grupelnk",
              "specs" : [ {
                "status" : "info",
                "place" : {
                  "filePath" : "testTablet.gspec",
                  "lineNumber" : 27
                },
                "name" : "left-of vjezbelnk",
                "meta" : [ {
                  "from" : {
                    "object" : "grupelnk",
                    "edge" : "right"
                  },
                  "to" : {
                    "object" : "vjezbelnk",
                    "edge" : "left"
                  },
                  "expectedDistance" : ">= 0px",
                  "realDistance" : "3px"
                } ],
                "highlight" : [ "grupelnk", "vjezbelnk" ]
              } ]
            } ]
          }, {
            "name" : "Right of section",
            "place" : {
              "filePath" : "testTablet.gspec",
              "lineNumber" : 29
            },
            "objects" : [ {
              "name" : "vjezbelnk",
              "specs" : [ {
                "status" : "info",
                "place" : {
                  "filePath" : "testTablet.gspec",
                  "lineNumber" : 31
                },
                "name" : "right-of grupelnk",
                "meta" : [ {
                  "from" : {
                    "object" : "vjezbelnk",
                    "edge" : "left"
                  },
                  "to" : {
                    "object" : "grupelnk",
                    "edge" : "right"
                  },
                  "expectedDistance" : ">= 0px",
                  "realDistance" : "3px"
                } ],
                "highlight" : [ "vjezbelnk", "grupelnk" ]
              } ]
            } ]
          }, {
            "name" : "Above section",
            "place" : {
              "filePath" : "testTablet.gspec",
              "lineNumber" : 33
            },
            "objects" : [ {
              "name" : "meni",
              "specs" : [ {
                "status" : "info",
                "place" : {
                  "filePath" : "testTablet.gspec",
                  "lineNumber" : 35
                },
                "name" : "above studenti",
                "meta" : [ {
                  "from" : {
                    "object" : "meni",
                    "edge" : "bottom"
                  },
                  "to" : {
                    "object" : "studenti",
                    "edge" : "top"
                  },
                  "expectedDistance" : ">= 0px",
                  "realDistance" : "680px"
                } ],
                "highlight" : [ "meni", "studenti" ]
              }, {
                "status" : "info",
                "place" : {
                  "filePath" : "testTablet.gspec",
                  "lineNumber" : 37
                },
                "name" : "above grupe",
                "meta" : [ {
                  "from" : {
                    "object" : "meni",
                    "edge" : "bottom"
                  },
                  "to" : {
                    "object" : "grupe",
                    "edge" : "top"
                  },
                  "expectedDistance" : ">= 0px",
                  "realDistance" : "0px"
                } ],
                "highlight" : [ "meni", "grupe" ]
              } ]
            }, {
              "name" : "grupelnk",
              "specs" : [ {
                "status" : "info",
                "place" : {
                  "filePath" : "testTablet.gspec",
                  "lineNumber" : 39
                },
                "name" : "above studenti",
                "meta" : [ {
                  "from" : {
                    "object" : "grupelnk",
                    "edge" : "bottom"
                  },
                  "to" : {
                    "object" : "studenti",
                    "edge" : "top"
                  },
                  "expectedDistance" : ">= 0px",
                  "realDistance" : "724px"
                } ],
                "highlight" : [ "grupelnk", "studenti" ]
              }, {
                "status" : "info",
                "place" : {
                  "filePath" : "testTablet.gspec",
                  "lineNumber" : 41
                },
                "name" : "above grupe",
                "meta" : [ {
                  "from" : {
                    "object" : "grupelnk",
                    "edge" : "bottom"
                  },
                  "to" : {
                    "object" : "grupe",
                    "edge" : "top"
                  },
                  "expectedDistance" : ">= 0px",
                  "realDistance" : "44px"
                } ],
                "highlight" : [ "grupelnk", "grupe" ]
              } ]
            }, {
              "name" : "vjezbelnk",
              "specs" : [ {
                "status" : "info",
                "place" : {
                  "filePath" : "testTablet.gspec",
                  "lineNumber" : 43
                },
                "name" : "above studenti",
                "meta" : [ {
                  "from" : {
                    "object" : "vjezbelnk",
                    "edge" : "bottom"
                  },
                  "to" : {
                    "object" : "studenti",
                    "edge" : "top"
                  },
                  "expectedDistance" : ">= 0px",
                  "realDistance" : "724px"
                } ],
                "highlight" : [ "vjezbelnk", "studenti" ]
              }, {
                "status" : "info",
                "place" : {
                  "filePath" : "testTablet.gspec",
                  "lineNumber" : 45
                },
                "name" : "above grupe",
                "meta" : [ {
                  "from" : {
                    "object" : "vjezbelnk",
                    "edge" : "bottom"
                  },
                  "to" : {
                    "object" : "grupe",
                    "edge" : "top"
                  },
                  "expectedDistance" : ">= 0px",
                  "realDistance" : "44px"
                } ],
                "highlight" : [ "vjezbelnk", "grupe" ]
              } ]
            }, {
              "name" : "grupe",
              "specs" : [ {
                "status" : "info",
                "place" : {
                  "filePath" : "testTablet.gspec",
                  "lineNumber" : 47
                },
                "name" : "above studenti",
                "meta" : [ {
                  "from" : {
                    "object" : "grupe",
                    "edge" : "bottom"
                  },
                  "to" : {
                    "object" : "studenti",
                    "edge" : "top"
                  },
                  "expectedDistance" : ">= 0px",
                  "realDistance" : "0px"
                } ],
                "highlight" : [ "grupe", "studenti" ]
              } ]
            } ]
          }, {
            "name" : "Below section",
            "place" : {
              "filePath" : "testTablet.gspec",
              "lineNumber" : 49
            },
            "objects" : [ {
              "name" : "studenti",
              "specs" : [ {
                "status" : "info",
                "place" : {
                  "filePath" : "testTablet.gspec",
                  "lineNumber" : 51
                },
                "name" : "below meni",
                "meta" : [ {
                  "from" : {
                    "object" : "studenti",
                    "edge" : "top"
                  },
                  "to" : {
                    "object" : "meni",
                    "edge" : "bottom"
                  },
                  "expectedDistance" : ">= 0px",
                  "realDistance" : "680px"
                } ],
                "highlight" : [ "studenti", "meni" ]
              }, {
                "status" : "info",
                "place" : {
                  "filePath" : "testTablet.gspec",
                  "lineNumber" : 55
                },
                "name" : "below grupelnk",
                "meta" : [ {
                  "from" : {
                    "object" : "studenti",
                    "edge" : "top"
                  },
                  "to" : {
                    "object" : "grupelnk",
                    "edge" : "bottom"
                  },
                  "expectedDistance" : ">= 0px",
                  "realDistance" : "724px"
                } ],
                "highlight" : [ "studenti", "grupelnk" ]
              }, {
                "status" : "info",
                "place" : {
                  "filePath" : "testTablet.gspec",
                  "lineNumber" : 59
                },
                "name" : "below vjezbelnk",
                "meta" : [ {
                  "from" : {
                    "object" : "studenti",
                    "edge" : "top"
                  },
                  "to" : {
                    "object" : "vjezbelnk",
                    "edge" : "bottom"
                  },
                  "expectedDistance" : ">= 0px",
                  "realDistance" : "724px"
                } ],
                "highlight" : [ "studenti", "vjezbelnk" ]
              }, {
                "status" : "info",
                "place" : {
                  "filePath" : "testTablet.gspec",
                  "lineNumber" : 63
                },
                "name" : "below grupe",
                "meta" : [ {
                  "from" : {
                    "object" : "studenti",
                    "edge" : "top"
                  },
                  "to" : {
                    "object" : "grupe",
                    "edge" : "bottom"
                  },
                  "expectedDistance" : ">= 0px",
                  "realDistance" : "0px"
                } ],
                "highlight" : [ "studenti", "grupe" ]
              } ]
            }, {
              "name" : "grupe",
              "specs" : [ {
                "status" : "info",
                "place" : {
                  "filePath" : "testTablet.gspec",
                  "lineNumber" : 53
                },
                "name" : "below meni",
                "meta" : [ {
                  "from" : {
                    "object" : "grupe",
                    "edge" : "top"
                  },
                  "to" : {
                    "object" : "meni",
                    "edge" : "bottom"
                  },
                  "expectedDistance" : ">= 0px",
                  "realDistance" : "0px"
                } ],
                "highlight" : [ "grupe", "meni" ]
              }, {
                "status" : "info",
                "place" : {
                  "filePath" : "testTablet.gspec",
                  "lineNumber" : 57
                },
                "name" : "below grupelnk",
                "meta" : [ {
                  "from" : {
                    "object" : "grupe",
                    "edge" : "top"
                  },
                  "to" : {
                    "object" : "grupelnk",
                    "edge" : "bottom"
                  },
                  "expectedDistance" : ">= 0px",
                  "realDistance" : "44px"
                } ],
                "highlight" : [ "grupe", "grupelnk" ]
              }, {
                "status" : "info",
                "place" : {
                  "filePath" : "testTablet.gspec",
                  "lineNumber" : 61
                },
                "name" : "below vjezbelnk",
                "meta" : [ {
                  "from" : {
                    "object" : "grupe",
                    "edge" : "top"
                  },
                  "to" : {
                    "object" : "vjezbelnk",
                    "edge" : "bottom"
                  },
                  "expectedDistance" : ">= 0px",
                  "realDistance" : "44px"
                } ],
                "highlight" : [ "grupe", "vjezbelnk" ]
              } ]
            } ]
          }, {
            "name" : "Visible section",
            "place" : {
              "filePath" : "testTablet.gspec",
              "lineNumber" : 64
            },
            "objects" : [ {
              "name" : "meni",
              "specs" : [ {
                "status" : "info",
                "place" : {
                  "filePath" : "testTablet.gspec",
                  "lineNumber" : 66
                },
                "name" : "visible",
                "highlight" : [ "meni" ]
              } ]
            }, {
              "name" : "studenti",
              "specs" : [ {
                "status" : "info",
                "place" : {
                  "filePath" : "testTablet.gspec",
                  "lineNumber" : 68
                },
                "name" : "visible",
                "highlight" : [ "studenti" ]
              } ]
            }, {
              "name" : "grupe",
              "specs" : [ {
                "status" : "info",
                "place" : {
                  "filePath" : "testTablet.gspec",
                  "lineNumber" : 70
                },
                "name" : "visible",
                "highlight" : [ "grupe" ]
              } ]
            }, {
              "name" : "grupelnk",
              "specs" : [ {
                "status" : "info",
                "place" : {
                  "filePath" : "testTablet.gspec",
                  "lineNumber" : 72
                },
                "name" : "visible",
                "highlight" : [ "grupelnk" ]
              } ]
            }, {
              "name" : "vjezbelnk",
              "specs" : [ {
                "status" : "info",
                "place" : {
                  "filePath" : "testTablet.gspec",
                  "lineNumber" : 74
                },
                "name" : "visible",
                "highlight" : [ "vjezbelnk" ]
              } ]
            } ]
          }, {
            "name" : "Inside partly section",
            "place" : {
              "filePath" : "testTablet.gspec",
              "lineNumber" : 76
            },
            "objects" : [ {
              "name" : "meni",
              "specs" : [ {
                "status" : "info",
                "place" : {
                  "filePath" : "testTablet.gspec",
                  "lineNumber" : 78
                },
                "name" : "inside partly body ~0px left, ~0px top",
                "meta" : [ {
                  "from" : {
                    "object" : "meni",
                    "edge" : "left"
                  },
                  "to" : {
                    "object" : "body",
                    "edge" : "left"
                  },
                  "expectedDistance" : "-2 to 2px",
                  "realDistance" : "0px"
                }, {
                  "from" : {
                    "object" : "meni",
                    "edge" : "top"
                  },
                  "to" : {
                    "object" : "body",
                    "edge" : "top"
                  },
                  "expectedDistance" : "-2 to 2px",
                  "realDistance" : "0px"
                } ],
                "highlight" : [ "meni", "body" ]
              } ]
            } ]
          } ],
          "objects" : {
            "meni" : {
              "area" : [ 0, 0, 517, 98 ]
            },
            "grupelnk" : {
              "area" : [ 0, 37, 40, 17 ]
            },
            "body" : {
              "area" : [ 0, 0, 517, 680 ]
            },
            "vjezbelnk" : {
              "area" : [ 43, 37, 61, 17 ]
            },
            "grupe" : {
              "area" : [ 0, 98, 517, 680 ]
            },
            "studenti" : {
              "area" : [ 0, 778, 517, 680 ]
            }
          },
          "screenshot" : "layout-1-screenshot.png",
          "type" : "layout"
        } ],
        "time" : 1636903468368,
        "type" : "node"
      } ],
      "time" : 1636903464266,
      "type" : "node"
    } ]
  }
}